
==============  Number of Model Checker Invocation : xxx ==============================
=====================       E_Map for Round 1          ======================
G32	-->	{   E734   }
G33	-->	{   E734   }
G34	-->	{   E734   }
G35	-->	{   E734   }
G36	-->	{   E735   }
G37	-->	{   E735   }
G38	-->	{   E735   }
G39	-->	{   E735   }
G40	-->	{   E736   }
G41	-->	{   E736   }
G42	-->	{   E736   }
G43	-->	{   E736   }
G44	-->	{   E737   }
G45	-->	{   E737   }
G46	-->	{   E737   }
G47	-->	{   E737   }
G48	-->	{   E739   }
G49	-->	{   E742   }
G50	-->	{   E741   }
G51	-->	{   E740   }
G52	-->	{   E740   }
G53	-->	{   E739   }
G54	-->	{   E742   }
G55	-->	{   E741   }
G56	-->	{   E741   }
G57	-->	{   E740   }
G58	-->	{   E739   }
G59	-->	{   E742   }
G60	-->	{   E742   }
G61	-->	{   E741   }
G62	-->	{   E740   }
G63	-->	{   E739   }
G64	-->	{   E739   }
G65	-->	{   E739   }
G66	-->	{   E739   }
G67	-->	{   E739   }
G68	-->	{   E740   }
G69	-->	{   E740   }
G70	-->	{   E740   }
G71	-->	{   E740   }
G72	-->	{   E741   }
G73	-->	{   E741   }
G74	-->	{   E741   }
G75	-->	{   E741   }
G76	-->	{   E742   }
G77	-->	{   E742   }
G78	-->	{   E742   }
G79	-->	{   E742   }
G80	-->	{   E739   }
G81	-->	{   E739   }
G82	-->	{   E739   }
G83	-->	{   E739   }
G84	-->	{   E740   }
G85	-->	{   E740   }
G86	-->	{   E740   }
G87	-->	{   E740   }
G88	-->	{   E741   }
G89	-->	{   E741   }
G90	-->	{   E741   }
G91	-->	{   E741   }
G92	-->	{   E742   }
G93	-->	{   E742   }
G94	-->	{   E742   }
G95	-->	{   E742   }
