
==============  Number of Model Checker Invocation : xxx ==============================
=====================       E_Map for Round 1          ======================
G32	-->	{   E196   }
G33	-->	{   E197   }
G34	-->	{   E198   }
G35	-->	{   E199   }
G36	-->	{   E201   }
G37	-->	{   E202   }
G38	-->	{   E203   }
G39	-->	{   E204   }
G40	-->	{   E206   }
G41	-->	{   E207   }
G42	-->	{   E208   }
G43	-->	{   E209   }
G44	-->	{   E211   }
G45	-->	{   E212   }
G46	-->	{   E213   }
G47	-->	{   E214   }
G48	-->	{   E221   }
G49	-->	{   E243   }
G50	-->	{   E238   }
G51	-->	{   E234   }
G52	-->	{   E229   }
G53	-->	{   E223   }
G54	-->	{   E244   }
G55	-->	{   E240   }
G56	-->	{   E236   }
G57	-->	{   E230   }
G58	-->	{   E225   }
G59	-->	{   E245   }
G60	-->	{   E242   }
G61	-->	{   E237   }
G62	-->	{   E232   }
G63	-->	{   E227   }
G64	-->	{   E258   }
G65	-->	{   E258   }
G66	-->	{   E258   }
G67	-->	{   E258   }
G68	-->	{   E229   }
G69	-->	{   E230   }
G70	-->	{   E232   }
G71	-->	{   E234   }
G72	-->	{   E236   }
G73	-->	{   E237   }
G74	-->	{   E238   }
G75	-->	{   E240   }
G76	-->	{   E242   }
G77	-->	{   E243   }
G78	-->	{   E244   }
G79	-->	{   E245   }
G80	-->	{   E258   }
G81	-->	{   E259   }
G82	-->	{   E260   }
G83	-->	{   E261   }
G84	-->	{   E269   }
G85	-->	{   E270   }
G86	-->	{   E271   }
G87	-->	{   E272   }
G88	-->	{   E280   }
G89	-->	{   E281   }
G90	-->	{   E282   }
G91	-->	{   E283   }
G92	-->	{   E291   }
G93	-->	{   E292   }
G94	-->	{   E293   }
G95	-->	{   E294   }
