F28[1] : 128
F28[2] : 128
F28[3] : 128
F28[4] : 128
F28[5] : 128
F28[6] : 128
F28[7] : 128
F28[8] : 128
F28[9] : 128
F28[10] : 128
F28[11] : 128
F28[12] : 128
F28[13] : 128
F28[14] : 128
F28[15] : 128
F28[16] : 128
F29[1] : 128
F29[2] : 128
F29[3] : 128
F29[4] : 128
F29[5] : 128
F29[6] : 128
F29[7] : 128
F29[8] : 128
F29[9] : 128
F29[10] : 128
F29[11] : 128
F29[12] : 128
F29[13] : 128
F29[14] : 128
F29[15] : 128
F29[16] : 128
F30[1] : 128
F30[2] : 128
F30[3] : 128
F30[4] : 128
F30[5] : 128
F30[6] : 128
F30[7] : 128
F30[8] : 128
F30[9] : 128
F30[10] : 128
F30[11] : 128
F30[12] : 128
F30[13] : 128
F30[14] : 128
F30[15] : 128
F30[16] : 128
F31[1] : 128
F31[2] : 128
F31[3] : 128
F31[4] : 128
F31[5] : 128
F31[6] : 128
F31[7] : 128
F31[8] : 128
F31[9] : 128
F31[10] : 128
F31[11] : 128
F31[12] : 128
F31[13] : 128
F31[14] : 128
F31[15] : 128
F31[16] : 128
F32[1] : 32
F32[2] : 32
F32[3] : 32
F32[4] : 32
F32[5] : 32
F32[6] : 32
F32[7] : 32
F32[8] : 32
F32[9] : 32
F32[10] : 32
F32[11] : 32
F32[12] : 32
F32[13] : 32
F32[14] : 32
F32[15] : 32
F32[16] : 32
F33[1] : 32
F33[2] : 32
F33[3] : 32
F33[4] : 32
F33[5] : 32
F33[6] : 32
F33[7] : 32
F33[8] : 32
F33[9] : 32
F33[10] : 32
F33[11] : 32
F33[12] : 32
F33[13] : 32
F33[14] : 32
F33[15] : 32
F33[16] : 32
F34[1] : 32
F34[2] : 32
F34[3] : 32
F34[4] : 32
F34[5] : 32
F34[6] : 32
F34[7] : 32
F34[8] : 32
F34[9] : 32
F34[10] : 32
F34[11] : 32
F34[12] : 32
F34[13] : 32
F34[14] : 32
F34[15] : 32
F34[16] : 32
F35[1] : 32
F35[2] : 32
F35[3] : 32
F35[4] : 32
F35[5] : 32
F35[6] : 32
F35[7] : 32
F35[8] : 32
F35[9] : 32
F35[10] : 32
F35[11] : 32
F35[12] : 32
F35[13] : 32
F35[14] : 32
F35[15] : 32
F35[16] : 32
