=====================       E_Map for Round 1          ======================

G32	-->	{   E734   }
G33	-->	{   E734   }
G34	-->	{   E734   }
G35	-->	{   E734   }
G36	-->	{   E735   }
G37	-->	{   E735   }
G38	-->	{   E735   }
G39	-->	{   E735   }
G40	-->	{   E736   }
G41	-->	{   E736   }
G42	-->	{   E736   }
G43	-->	{   E736   }
G44	-->	{   E737   }
G45	-->	{   E737   }
G46	-->	{   E737   }
G47	-->	{   E737   }
G48	-->	{   E740   }
G49	-->	{   E743   }
G50	-->	{   E742   }
G51	-->	{   E741   }
G52	-->	{   E741   }
G53	-->	{   E740   }
G54	-->	{   E743   }
G55	-->	{   E742   }
G56	-->	{   E742   }
G57	-->	{   E741   }
G58	-->	{   E740   }
G59	-->	{   E743   }
G60	-->	{   E743   }
G61	-->	{   E742   }
G62	-->	{   E741   }
G63	-->	{   E740   }
G64	-->	{   E740   }
G65	-->	{   E740   }
G66	-->	{   E740   }
G67	-->	{   E740   }
G68	-->	{   E741   }
G69	-->	{   E741   }
G70	-->	{   E741   }
G71	-->	{   E741   }
G72	-->	{   E742   }
G73	-->	{   E742   }
G74	-->	{   E742   }
G75	-->	{   E742   }
G76	-->	{   E743   }
G77	-->	{   E743   }
G78	-->	{   E743   }
G79	-->	{   E743   }
G80	-->	{   E740   }
G81	-->	{   E740   }
G82	-->	{   E740   }
G83	-->	{   E740   }
G84	-->	{   E741   }
G85	-->	{   E741   }
G86	-->	{   E741   }
G87	-->	{   E741   }
G88	-->	{   E742   }
G89	-->	{   E742   }
G90	-->	{   E742   }
G91	-->	{   E742   }
G92	-->	{   E743   }
G93	-->	{   E743   }
G94	-->	{   E743   }
G95	-->	{   E743   }
G96	-->	{   E740   }
G97	-->	{   E740   }
G98	-->	{   E740   }
G99	-->	{   E740   }
G100	-->	{   E741   }
G101	-->	{   E741   }
G102	-->	{   E741   }
G103	-->	{   E741   }
G104	-->	{   E742   }
G105	-->	{   E742   }
G106	-->	{   E742   }
G107	-->	{   E742   }
G108	-->	{   E743   }
G109	-->	{   E743   }
G110	-->	{   E743   }
G111	-->	{   E743   }
=====================       E_Map for Round 2          ======================

G112	-->	{   E747   }
G113	-->	{   E750   }
G114	-->	{   E749   }
G115	-->	{   E748   }
G116	-->	{   E748   }
G117	-->	{   E747   }
G118	-->	{   E750   }
G119	-->	{   E749   }
G120	-->	{   E749   }
G121	-->	{   E748   }
G122	-->	{   E747   }
G123	-->	{   E750   }
G124	-->	{   E750   }
G125	-->	{   E749   }
G126	-->	{   E748   }
G127	-->	{   E747   }
G128	-->	{   E747   }
G129	-->	{   E747   }
G130	-->	{   E747   }
G131	-->	{   E747   }
G132	-->	{   E748   }
G133	-->	{   E748   }
G134	-->	{   E748   }
G135	-->	{   E748   }
G136	-->	{   E749   }
G137	-->	{   E749   }
G138	-->	{   E749   }
G139	-->	{   E749   }
G140	-->	{   E750   }
G141	-->	{   E750   }
G142	-->	{   E750   }
G143	-->	{   E750   }
G144	-->	{   E747   }
G145	-->	{   E747   }
G146	-->	{   E747   }
G147	-->	{   E747   }
G148	-->	{   E748   }
G149	-->	{   E748   }
G150	-->	{   E748   }
G151	-->	{   E748   }
G152	-->	{   E749   }
G153	-->	{   E749   }
G154	-->	{   E749   }
G155	-->	{   E749   }
G156	-->	{   E750   }
G157	-->	{   E750   }
G158	-->	{   E750   }
G159	-->	{   E750   }
G160	-->	{   E747   }
G161	-->	{   E747   }
G162	-->	{   E747   }
G163	-->	{   E747   }
G164	-->	{   E748   }
G165	-->	{   E748   }
G166	-->	{   E748   }
G167	-->	{   E748   }
G168	-->	{   E749   }
G169	-->	{   E749   }
G170	-->	{   E749   }
G171	-->	{   E749   }
G172	-->	{   E750   }
G173	-->	{   E750   }
G174	-->	{   E750   }
G175	-->	{   E750   }
=====================       E_Map for Round 3          ======================

G176	-->	{   E754   }
G177	-->	{   E757   }
G178	-->	{   E756   }
G179	-->	{   E755   }
G180	-->	{   E755   }
G181	-->	{   E754   }
G182	-->	{   E757   }
G183	-->	{   E756   }
G184	-->	{   E756   }
G185	-->	{   E755   }
G186	-->	{   E754   }
G187	-->	{   E757   }
G188	-->	{   E757   }
G189	-->	{   E756   }
G190	-->	{   E755   }
G191	-->	{   E754   }
G192	-->	{   E754   }
G193	-->	{   E754   }
G194	-->	{   E754   }
G195	-->	{   E754   }
G196	-->	{   E755   }
G197	-->	{   E755   }
G198	-->	{   E755   }
G199	-->	{   E755   }
G200	-->	{   E756   }
G201	-->	{   E756   }
G202	-->	{   E756   }
G203	-->	{   E756   }
G204	-->	{   E757   }
G205	-->	{   E757   }
G206	-->	{   E757   }
G207	-->	{   E757   }
G208	-->	{   E754   }
G209	-->	{   E754   }
G210	-->	{   E754   }
G211	-->	{   E754   }
G212	-->	{   E755   }
G213	-->	{   E755   }
G214	-->	{   E755   }
G215	-->	{   E755   }
G216	-->	{   E756   }
G217	-->	{   E756   }
G218	-->	{   E756   }
G219	-->	{   E756   }
G220	-->	{   E757   }
G221	-->	{   E757   }
G222	-->	{   E757   }
G223	-->	{   E757   }
G224	-->	{   E754   }
G225	-->	{   E754   }
G226	-->	{   E754   }
G227	-->	{   E754   }
G228	-->	{   E755   }
G229	-->	{   E755   }
G230	-->	{   E755   }
G231	-->	{   E755   }
G232	-->	{   E756   }
G233	-->	{   E756   }
G234	-->	{   E756   }
G235	-->	{   E756   }
G236	-->	{   E757   }
G237	-->	{   E757   }
G238	-->	{   E757   }
G239	-->	{   E757   }
=====================       E_Map for Round 4          ======================

G240	-->	{   E761   }
G241	-->	{   E764   }
G242	-->	{   E763   }
G243	-->	{   E762   }
G244	-->	{   E762   }
G245	-->	{   E761   }
G246	-->	{   E764   }
G247	-->	{   E763   }
G248	-->	{   E763   }
G249	-->	{   E762   }
G250	-->	{   E761   }
G251	-->	{   E764   }
G252	-->	{   E764   }
G253	-->	{   E763   }
G254	-->	{   E762   }
G255	-->	{   E761   }
G256	-->	{   E761   }
G257	-->	{   E761   }
G258	-->	{   E761   }
G259	-->	{   E761   }
G260	-->	{   E762   }
G261	-->	{   E762   }
G262	-->	{   E762   }
G263	-->	{   E762   }
G264	-->	{   E763   }
G265	-->	{   E763   }
G266	-->	{   E763   }
G267	-->	{   E763   }
G268	-->	{   E764   }
G269	-->	{   E764   }
G270	-->	{   E764   }
G271	-->	{   E764   }
G272	-->	{   E761   }
G273	-->	{   E761   }
G274	-->	{   E761   }
G275	-->	{   E761   }
G276	-->	{   E762   }
G277	-->	{   E762   }
G278	-->	{   E762   }
G279	-->	{   E762   }
G280	-->	{   E763   }
G281	-->	{   E763   }
G282	-->	{   E763   }
G283	-->	{   E763   }
G284	-->	{   E764   }
G285	-->	{   E764   }
G286	-->	{   E764   }
G287	-->	{   E764   }
G288	-->	{   E761   }
G289	-->	{   E761   }
G290	-->	{   E761   }
G291	-->	{   E761   }
G292	-->	{   E762   }
G293	-->	{   E762   }
G294	-->	{   E762   }
G295	-->	{   E762   }
G296	-->	{   E763   }
G297	-->	{   E763   }
G298	-->	{   E763   }
G299	-->	{   E763   }
G300	-->	{   E764   }
G301	-->	{   E764   }
G302	-->	{   E764   }
G303	-->	{   E764   }
=====================       E_Map for Round 5          ======================

G304	-->	{   E768   }
G305	-->	{   E771   }
G306	-->	{   E770   }
G307	-->	{   E769   }
G308	-->	{   E769   }
G309	-->	{   E768   }
G310	-->	{   E771   }
G311	-->	{   E770   }
G312	-->	{   E770   }
G313	-->	{   E769   }
G314	-->	{   E768   }
G315	-->	{   E771   }
G316	-->	{   E771   }
G317	-->	{   E770   }
G318	-->	{   E769   }
G319	-->	{   E768   }
G320	-->	{   E768   }
G321	-->	{   E768   }
G322	-->	{   E768   }
G323	-->	{   E768   }
G324	-->	{   E769   }
G325	-->	{   E769   }
G326	-->	{   E769   }
G327	-->	{   E769   }
G328	-->	{   E770   }
G329	-->	{   E770   }
G330	-->	{   E770   }
G331	-->	{   E770   }
G332	-->	{   E771   }
G333	-->	{   E771   }
G334	-->	{   E771   }
G335	-->	{   E771   }
G336	-->	{   E768   }
G337	-->	{   E768   }
G338	-->	{   E768   }
G339	-->	{   E768   }
G340	-->	{   E769   }
G341	-->	{   E769   }
G342	-->	{   E769   }
G343	-->	{   E769   }
G344	-->	{   E770   }
G345	-->	{   E770   }
G346	-->	{   E770   }
G347	-->	{   E770   }
G348	-->	{   E771   }
G349	-->	{   E771   }
G350	-->	{   E771   }
G351	-->	{   E771   }
G352	-->	{   E768   }
G353	-->	{   E768   }
G354	-->	{   E768   }
G355	-->	{   E768   }
G356	-->	{   E769   }
G357	-->	{   E769   }
G358	-->	{   E769   }
G359	-->	{   E769   }
G360	-->	{   E770   }
G361	-->	{   E770   }
G362	-->	{   E770   }
G363	-->	{   E770   }
G364	-->	{   E771   }
G365	-->	{   E771   }
G366	-->	{   E771   }
G367	-->	{   E771   }
=====================       E_Map for Round 6          ======================

G368	-->	{   E775   }
G369	-->	{   E778   }
G370	-->	{   E777   }
G371	-->	{   E776   }
G372	-->	{   E776   }
G373	-->	{   E775   }
G374	-->	{   E778   }
G375	-->	{   E777   }
G376	-->	{   E777   }
G377	-->	{   E776   }
G378	-->	{   E775   }
G379	-->	{   E778   }
G380	-->	{   E778   }
G381	-->	{   E777   }
G382	-->	{   E776   }
G383	-->	{   E775   }
G384	-->	{   E775   }
G385	-->	{   E775   }
G386	-->	{   E775   }
G387	-->	{   E775   }
G388	-->	{   E776   }
G389	-->	{   E776   }
G390	-->	{   E776   }
G391	-->	{   E776   }
G392	-->	{   E777   }
G393	-->	{   E777   }
G394	-->	{   E777   }
G395	-->	{   E777   }
G396	-->	{   E778   }
G397	-->	{   E778   }
G398	-->	{   E778   }
G399	-->	{   E778   }
G400	-->	{   E775   }
G401	-->	{   E775   }
G402	-->	{   E775   }
G403	-->	{   E775   }
G404	-->	{   E776   }
G405	-->	{   E776   }
G406	-->	{   E776   }
G407	-->	{   E776   }
G408	-->	{   E777   }
G409	-->	{   E777   }
G410	-->	{   E777   }
G411	-->	{   E777   }
G412	-->	{   E778   }
G413	-->	{   E778   }
G414	-->	{   E778   }
G415	-->	{   E778   }
G416	-->	{   E775   }
G417	-->	{   E775   }
G418	-->	{   E775   }
G419	-->	{   E775   }
G420	-->	{   E776   }
G421	-->	{   E776   }
G422	-->	{   E776   }
G423	-->	{   E776   }
G424	-->	{   E777   }
G425	-->	{   E777   }
G426	-->	{   E777   }
G427	-->	{   E777   }
G428	-->	{   E778   }
G429	-->	{   E778   }
G430	-->	{   E778   }
G431	-->	{   E778   }
=====================       E_Map for Round 7          ======================

G432	-->	{   E782   }
G433	-->	{   E785   }
G434	-->	{   E784   }
G435	-->	{   E783   }
G436	-->	{   E783   }
G437	-->	{   E782   }
G438	-->	{   E785   }
G439	-->	{   E784   }
G440	-->	{   E784   }
G441	-->	{   E783   }
G442	-->	{   E782   }
G443	-->	{   E785   }
G444	-->	{   E785   }
G445	-->	{   E784   }
G446	-->	{   E783   }
G447	-->	{   E782   }
G448	-->	{   E782   }
G449	-->	{   E782   }
G450	-->	{   E782   }
G451	-->	{   E782   }
G452	-->	{   E783   }
G453	-->	{   E783   }
G454	-->	{   E783   }
G455	-->	{   E783   }
G456	-->	{   E784   }
G457	-->	{   E784   }
G458	-->	{   E784   }
G459	-->	{   E784   }
G460	-->	{   E785   }
G461	-->	{   E785   }
G462	-->	{   E785   }
G463	-->	{   E785   }
G464	-->	{   E782   }
G465	-->	{   E782   }
G466	-->	{   E782   }
G467	-->	{   E782   }
G468	-->	{   E783   }
G469	-->	{   E783   }
G470	-->	{   E783   }
G471	-->	{   E783   }
G472	-->	{   E784   }
G473	-->	{   E784   }
G474	-->	{   E784   }
G475	-->	{   E784   }
G476	-->	{   E785   }
G477	-->	{   E785   }
G478	-->	{   E785   }
G479	-->	{   E785   }
G480	-->	{   E782   }
G481	-->	{   E782   }
G482	-->	{   E782   }
G483	-->	{   E782   }
G484	-->	{   E783   }
G485	-->	{   E783   }
G486	-->	{   E783   }
G487	-->	{   E783   }
G488	-->	{   E784   }
G489	-->	{   E784   }
G490	-->	{   E784   }
G491	-->	{   E784   }
G492	-->	{   E785   }
G493	-->	{   E785   }
G494	-->	{   E785   }
G495	-->	{   E785   }
=====================       E_Map for Round 8          ======================

G496	-->	{   E789   }
G497	-->	{   E792   }
G498	-->	{   E791   }
G499	-->	{   E790   }
G500	-->	{   E790   }
G501	-->	{   E789   }
G502	-->	{   E792   }
G503	-->	{   E791   }
G504	-->	{   E791   }
G505	-->	{   E790   }
G506	-->	{   E789   }
G507	-->	{   E792   }
G508	-->	{   E792   }
G509	-->	{   E791   }
G510	-->	{   E790   }
G511	-->	{   E789   }
G512	-->	{   E789   }
G513	-->	{   E789   }
G514	-->	{   E789   }
G515	-->	{   E789   }
G516	-->	{   E790   }
G517	-->	{   E790   }
G518	-->	{   E790   }
G519	-->	{   E790   }
G520	-->	{   E791   }
G521	-->	{   E791   }
G522	-->	{   E791   }
G523	-->	{   E791   }
G524	-->	{   E792   }
G525	-->	{   E792   }
G526	-->	{   E792   }
G527	-->	{   E792   }
G528	-->	{   E789   }
G529	-->	{   E789   }
G530	-->	{   E789   }
G531	-->	{   E789   }
G532	-->	{   E790   }
G533	-->	{   E790   }
G534	-->	{   E790   }
G535	-->	{   E790   }
G536	-->	{   E791   }
G537	-->	{   E791   }
G538	-->	{   E791   }
G539	-->	{   E791   }
G540	-->	{   E792   }
G541	-->	{   E792   }
G542	-->	{   E792   }
G543	-->	{   E792   }
G544	-->	{   E789   }
G545	-->	{   E789   }
G546	-->	{   E789   }
G547	-->	{   E789   }
G548	-->	{   E790   }
G549	-->	{   E790   }
G550	-->	{   E790   }
G551	-->	{   E790   }
G552	-->	{   E791   }
G553	-->	{   E791   }
G554	-->	{   E791   }
G555	-->	{   E791   }
G556	-->	{   E792   }
G557	-->	{   E792   }
G558	-->	{   E792   }
G559	-->	{   E792   }
=====================       E_Map for Round 9          ======================

G560	-->	{   E796   }
G561	-->	{   E799   }
G562	-->	{   E798   }
G563	-->	{   E797   }
G564	-->	{   E797   }
G565	-->	{   E796   }
G566	-->	{   E799   }
G567	-->	{   E798   }
G568	-->	{   E798   }
G569	-->	{   E797   }
G570	-->	{   E796   }
G571	-->	{   E799   }
G572	-->	{   E799   }
G573	-->	{   E798   }
G574	-->	{   E797   }
G575	-->	{   E796   }
G576	-->	{   E796   }
G577	-->	{   E796   }
G578	-->	{   E796   }
G579	-->	{   E796   }
G580	-->	{   E797   }
G581	-->	{   E797   }
G582	-->	{   E797   }
G583	-->	{   E797   }
G584	-->	{   E798   }
G585	-->	{   E798   }
G586	-->	{   E798   }
G587	-->	{   E798   }
G588	-->	{   E799   }
G589	-->	{   E799   }
G590	-->	{   E799   }
G591	-->	{   E799   }
G592	-->	{   E796   }
G593	-->	{   E796   }
G594	-->	{   E796   }
G595	-->	{   E796   }
G596	-->	{   E797   }
G597	-->	{   E797   }
G598	-->	{   E797   }
G599	-->	{   E797   }
G600	-->	{   E798   }
G601	-->	{   E798   }
G602	-->	{   E798   }
G603	-->	{   E798   }
G604	-->	{   E799   }
G605	-->	{   E799   }
G606	-->	{   E799   }
G607	-->	{   E799   }
G608	-->	{   E796   }
G609	-->	{   E796   }
G610	-->	{   E796   }
G611	-->	{   E796   }
G612	-->	{   E797   }
G613	-->	{   E797   }
G614	-->	{   E797   }
G615	-->	{   E797   }
G616	-->	{   E798   }
G617	-->	{   E798   }
G618	-->	{   E798   }
G619	-->	{   E798   }
G620	-->	{   E799   }
G621	-->	{   E799   }
G622	-->	{   E799   }
G623	-->	{   E799   }
=====================       E_Map for Round 10          ======================

G624	-->	{   E805   }
G625	-->	{   E818   }
G626	-->	{   E815   }
G627	-->	{   E812   }
G628	-->	{   E809   }
G629	-->	{   E806   }
G630	-->	{   E819   }
G631	-->	{   E816   }
G632	-->	{   E813   }
G633	-->	{   E810   }
G634	-->	{   E807   }
G635	-->	{   E820   }
G636	-->	{   E817   }
G637	-->	{   E814   }
G638	-->	{   E811   }
G639	-->	{   E808   }
G640	-->	{   E805   }
G641	-->	{   E806   }
G642	-->	{   E807   }
G643	-->	{   E808   }
G644	-->	{   E809   }
G645	-->	{   E810   }
G646	-->	{   E811   }
G647	-->	{   E812   }
G648	-->	{   E813   }
G649	-->	{   E814   }
G650	-->	{   E815   }
G651	-->	{   E816   }
G652	-->	{   E817   }
G653	-->	{   E818   }
G654	-->	{   E819   }
G655	-->	{   E820   }
G656	-->	{   E805   }
G657	-->	{   E806   }
G658	-->	{   E807   }
G659	-->	{   E808   }
G660	-->	{   E809   }
G661	-->	{   E810   }
G662	-->	{   E811   }
G663	-->	{   E812   }
G664	-->	{   E813   }
G665	-->	{   E814   }
G666	-->	{   E815   }
G667	-->	{   E816   }
G668	-->	{   E817   }
G669	-->	{   E818   }
G670	-->	{   E819   }
G671	-->	{   E820   }
