F64[1] :14
F64[2] :14
F64[3] :14
F64[4] :14
F64[5] :14
F64[6] :14
F64[7] :14
F64[8] :14
F64[9] :14
F64[10] :14
F64[11] :14
F64[12] :14
F64[13] :14
F64[14] :14
F64[15] :14
F65[1] :14
F65[2] :14
F65[3] :14
F65[4] :14
F65[5] :14
F65[6] :14
F65[7] :14
F65[8] :14
F65[9] :14
F65[10] :14
F65[11] :14
F65[12] :14
F65[13] :14
F65[14] :14
F65[15] :14
F66[1] :14
F66[2] :14
F66[3] :14
F66[4] :14
F66[5] :14
F66[6] :14
F66[7] :14
F66[8] :14
F66[9] :14
F66[10] :14
F66[11] :14
F66[12] :14
F66[13] :14
F66[14] :14
F66[15] :14
F67[1] :14
F67[2] :14
F67[3] :14
F67[4] :14
F67[5] :14
F67[6] :14
F67[7] :14
F67[8] :14
F67[9] :14
F67[10] :14
F67[11] :14
F67[12] :14
F67[13] :14
F67[14] :14
F67[15] :14
F68[1] :14
F68[2] :14
F68[3] :14
F68[4] :14
F68[5] :14
F68[6] :14
F68[7] :14
F68[8] :14
F68[9] :14
F68[10] :14
F68[11] :14
F68[12] :14
F68[13] :14
F68[14] :14
F68[15] :14
F69[1] :14
F69[2] :14
F69[3] :14
F69[4] :14
F69[5] :14
F69[6] :14
F69[7] :14
F69[8] :14
F69[9] :14
F69[10] :14
F69[11] :14
F69[12] :14
F69[13] :14
F69[14] :14
F69[15] :14
F70[1] :14
F70[2] :14
F70[3] :14
F70[4] :14
F70[5] :14
F70[6] :14
F70[7] :14
F70[8] :14
F70[9] :14
F70[10] :14
F70[11] :14
F70[12] :14
F70[13] :14
F70[14] :14
F70[15] :14
F71[1] :14
F71[2] :14
F71[3] :14
F71[4] :14
F71[5] :14
F71[6] :14
F71[7] :14
F71[8] :14
F71[9] :14
F71[10] :14
F71[11] :14
F71[12] :14
F71[13] :14
F71[14] :14
F71[15] :14
F72[1] :14
F72[2] :14
F72[3] :14
F72[4] :14
F72[5] :14
F72[6] :14
F72[7] :14
F72[8] :14
F72[9] :14
F72[10] :14
F72[11] :14
F72[12] :14
F72[13] :14
F72[14] :14
F72[15] :14
F73[1] :14
F73[2] :14
F73[3] :14
F73[4] :14
F73[5] :14
F73[6] :14
F73[7] :14
F73[8] :14
F73[9] :14
F73[10] :14
F73[11] :14
F73[12] :14
F73[13] :14
F73[14] :14
F73[15] :14
F74[1] :14
F74[2] :14
F74[3] :14
F74[4] :14
F74[5] :14
F74[6] :14
F74[7] :14
F74[8] :14
F74[9] :14
F74[10] :14
F74[11] :14
F74[12] :14
F74[13] :14
F74[14] :14
F74[15] :14
F75[1] :14
F75[2] :14
F75[3] :14
F75[4] :14
F75[5] :14
F75[6] :14
F75[7] :14
F75[8] :14
F75[9] :14
F75[10] :14
F75[11] :14
F75[12] :14
F75[13] :14
F75[14] :14
F75[15] :14
F76[1] :14
F76[2] :14
F76[3] :14
F76[4] :14
F76[5] :14
F76[6] :14
F76[7] :14
F76[8] :14
F76[9] :14
F76[10] :14
F76[11] :14
F76[12] :14
F76[13] :14
F76[14] :14
F76[15] :14
F77[1] :14
F77[2] :14
F77[3] :14
F77[4] :14
F77[5] :14
F77[6] :14
F77[7] :14
F77[8] :14
F77[9] :14
F77[10] :14
F77[11] :14
F77[12] :14
F77[13] :14
F77[14] :14
F77[15] :14
F78[1] :14
F78[2] :14
F78[3] :14
F78[4] :14
F78[5] :14
F78[6] :14
F78[7] :14
F78[8] :14
F78[9] :14
F78[10] :14
F78[11] :14
F78[12] :14
F78[13] :14
F78[14] :14
F78[15] :14
F79[1] :14
F79[2] :14
F79[3] :14
F79[4] :14
F79[5] :14
F79[6] :14
F79[7] :14
F79[8] :14
F79[9] :14
F79[10] :14
F79[11] :14
F79[12] :14
F79[13] :14
F79[14] :14
F79[15] :14
F80[1] :14
F80[2] :14
F80[3] :14
F80[4] :14
F80[5] :14
F80[6] :14
F80[7] :14
F80[8] :14
F80[9] :14
F80[10] :14
F80[11] :14
F80[12] :14
F80[13] :14
F80[14] :14
F80[15] :14
F81[1] :14
F81[2] :14
F81[3] :14
F81[4] :14
F81[5] :14
F81[6] :14
F81[7] :14
F81[8] :14
F81[9] :14
F81[10] :14
F81[11] :14
F81[12] :14
F81[13] :14
F81[14] :14
F81[15] :14
F82[1] :7
F82[2] :7
F82[3] :7
F82[4] :7
F82[5] :7
F82[6] :7
F82[7] :7
F82[8] :7
F82[9] :7
F82[10] :7
F82[11] :7
F82[12] :7
F82[13] :7
F82[14] :7
F82[15] :7
F83[1] :7
F83[2] :7
F83[3] :7
F83[4] :7
F83[5] :7
F83[6] :7
F83[7] :7
F83[8] :7
F83[9] :7
F83[10] :7
F83[11] :7
F83[12] :7
F83[13] :7
F83[14] :7
F83[15] :7
F84[1] :7
F84[2] :7
F84[3] :7
F84[4] :7
F84[5] :7
F84[6] :7
F84[7] :7
F84[8] :7
F84[9] :7
F84[10] :7
F84[11] :7
F84[12] :7
F84[13] :7
F84[14] :7
F84[15] :7
F85[1] :7
F85[2] :7
F85[3] :7
F85[4] :7
F85[5] :7
F85[6] :7
F85[7] :7
F85[8] :7
F85[9] :7
F85[10] :7
F85[11] :7
F85[12] :7
F85[13] :7
F85[14] :7
F85[15] :7
F86[1] :7
F86[2] :7
F86[3] :7
F86[4] :7
F86[5] :7
F86[6] :7
F86[7] :7
F86[8] :7
F86[9] :7
F86[10] :7
F86[11] :7
F86[12] :7
F86[13] :7
F86[14] :7
F86[15] :7
